<?xml version="1.0" encoding="UTF-8"?>
<session version="1.0">
<refactoring comment="Copy element &apos;menu.css&apos; to &apos;css&apos;&#x0A;- Original project: &apos;thanhnga82&apos;&#x0A;- Destination element: &apos;css&apos;&#x0A;- Original element: &apos;menu.css&apos;" description="Copy file" element1="WebContent/css/menu.css" files="1" flags="589830" folders="0" id="org.eclipse.jdt.ui.copy" policy="org.eclipse.jdt.ui.copyResources" stamp="1523246460741" target="/PersonalWebsite/WebContent/Menu/css" units="0" version="1.0"/>
</session>